Lösungen
…
Laden wir noch die übrigen Tabellen

Betrachten wir alle fünf Tabellen:

## # A tibble: 6 × 4
##   country      year  cases population
##   <chr>       <dbl>  <dbl>      <dbl>
## 1 Afghanistan  1999    745   19987071
## 2 Afghanistan  2000   2666   20595360
## 3 Brazil       1999  37737  172006362
## 4 Brazil       2000  80488  174504898
## 5 China        1999 212258 1272915272
## 6 China        2000 213766 1280428583

## # A tibble: 12 × 4
##   country      year type          count
##   <chr>       <dbl> <chr>         <dbl>
## 1 Afghanistan  1999 cases           745
## 2 Afghanistan  1999 population 19987071
## 3 Afghanistan  2000 cases          2666
## 4 Afghanistan  2000 population 20595360
## 5 Brazil       1999 cases         37737
## # … with 7 more rows
…
Geben Sie für jede Person die höhere der zwei Zahlen von
Religiösität und Ehezufriedenheit aus!

Berechnen Sie jeweils das Heiratsalter!

Lösung

Ad 1.

affairs %>% 
  filter(affairs > 0)

## # A tibble: 150 × 10
##    ...1 affairs gender   age yearsmarried children religiousness education
##   <dbl>   <dbl> <chr>  <dbl>        <dbl> <chr>            <dbl>     <dbl>
## 1     6       3 male      27        1.5   no                   3        18
## 2    12       3 female    27        4     yes                  3        17
## 3    43       7 male      37       15     yes                  5        18
## 4    53      12 female    32       10     yes                  3        17
## 5    67       1 male      22        0.125 no                   4        16
## # … with 145 more rows, and 2 more variables: occupation <dbl>, rating <dbl>

Ad 2.

affairs %>% 
  arrange(-affairs)

## # A tibble: 601 × 10
##    ...1 affairs gender   age yearsmarried children religiousness education
##   <dbl>   <dbl> <chr>  <dbl>        <dbl> <chr>            <dbl>     <dbl>
## 1    53      12 female    32           10 yes                  3        17
## 2   122      12 male      37           15 yes                  4        14
## 3   174      12 female    42           15 yes                  5         9
## 4   176      12 male      37           10 yes                  2        20
## 5   181      12 female    32           15 yes                  3        14
## # … with 596 more rows, and 2 more variables: occupation <dbl>, rating <dbl>

Ad 3.

affairs %>% 
  select(affairs, rating, children) %>% 
  arrange(children, affairs)

## # A tibble: 601 × 3
##   affairs rating children
##     <dbl>  <dbl> <chr>   
## 1       0      4 no      
## 2       0      4 no      
## 3       0      3 no      
## 4       0      5 no      
## 5       0      3 no      
## # … with 596 more rows
…
Ad 6.

affairs %>% 
  group_by(...1) %>% 
  summarise(max(c(religiousness, rating)))

## # A tibble: 601 × 2
##    ...1 `max(c(religiousness, rating))`
##   <dbl>                           <dbl>
## 1     4                               4
## 2     5                               4
## 3     6                               4
## 4    11                               4
## 5    12                               5
## # … with 596 more rows

Ad 7.

affairs %>% 
  mutate(heiratsalter = age - yearsmarried)

## # A tibble: 601 × 11
##    ...1 affairs gender   age yearsmarried children religiousness education
##   <dbl>   <dbl> <chr>  <dbl>        <dbl> <chr>            <dbl>     <dbl>
## 1     4       0 male      37        10    no                   3        18
## 2     5       0 female    27         4    no                   4        14
## 3    11       0 female    32        15    yes                  1        12
## 4    16       0 male      57        15    yes                  5        18
## 5    23       0 male      22         0.75 no                   2        17
## # … with 596 more rows, and 3 more variables: occupation <dbl>, rating <dbl>,
## #   heiratsalter <dbl>
…
